{
  "name": "Swiper",
  "version": "3.3.1",
  "assets": {
    "prod": {
      "css": [
        "packages/swiper/dist/css/swiper.min.css"
      ],
      "js": [
        "packages/swiper/dist/js/swiper.min.js"
      ]
    },
    "dev": {
      "css": [
        "packages/swiper/dist/css/swiper.css"
      ],
      "js": [
        "packages/swiper/dist/js/swiper.js"
      ]
    }
  },
  "docs": "http://www.idangero.us/swiper/api/",
  "config": {
    "initialSlide": 0,
    "direction": ["horizontal", "vertical"],
    "speed": 300,
    "setWrapperSize": [false, true],
    "virtualTranslate": [false, true],
    "autoHeight": [false, true],
    "roundLengths": [false, true],
    "nested": [false, true],
    "autoplay": 0,
    "autoplayStopOnLast": [false, true],
    "autoplayDisableOnInteraction": [true, false],
    "watchSlidesProgress": [false, true],
    "watchSlidesVisibility": [false, true],
    "freeMode": [false, true],
    "freeModeMomentum": [true, false],
    "freeModeMomentumRatio": 1,
    "freeModeMomentumBounce": [true, false],
    "freeModeMomentumBounceRatio": 1,
    "effect": ["slide", "fade", "cube", "coverflow", "flip"],
    "fade": {
      "crossFade": "false"
    },
    "cube": {
      "slideShadows": "false",
      "shadow": "true",
      "shadowOffset": 20,
      "shadowScale": 0.94
    },
    "coverflow": {
      "rotate": 50,
      "stretch": 0,
      "depth": 100,
      "modifier": 1,
      "slideShadows" : "true"
    },
    "flip": {
      "slideShadows": "true",
      "limitRotation": "true"
    },
    "parallax": [false, true],
    "spaceBetween": 0,
    "slidesPerView": 1,
    "slidesPerColumn": 1,
    "slidesPerColumnFill": ["column", "row"],
    "slidesPerGroup": 1,
    "centeredSlides": [false, true],
    "slidesOffsetBefore": 0,
    "slidesOffsetAfter": 0,
    "grabCursor": [false, true],
    "touchEventsTarget": ["container", "wrapper"],
    "touchRatio": 1,
    "touchAngle": 45,
    "simulateTouch": [true, false],
    "shortSwipes": [true, false],
    "longSwipes": [true, false],
    "longSwipesRatio": 0.5,
    "longSwipesMs": 300,
    "followFinger": [true, false],
    "onlyExternal": [false, true],
    "threshold": 0,
    "touchMoveStopPropagation": [true, false],
    "iOSEdgeSwipeDetection": [false, true],
    "iOSEdgeSwipeThreshold": 20,
    "resistance": [true, false],
    "resistanceRatio": 0.85,
    "preventClicks": [true, false],
    "preventClicksPropagation": [true, false],
    "slideToClickedSlide": [false, true],
    "allowSwipeToPrev": [true, false],
    "allowSwipeToNext": [true, false],
    "noSwiping": [true, false],
    "noSwipingClass": "swiper-no-swiping",
    "swipeHandler": null,
    "uniqueNavElements": [true, false],
    "pagination": null,
    "paginationType": ["bullets", "progress", "custom"],
    "paginationHide": [true, false],
    "paginationClickable": [false, true],
    "paginationElement": "span",
    "nextButton": ".swiper-button-next",
    "prevButton": ".swiper-button-prev",
    "scrollbar": null,
    "scrollbarHide": [true, false],
    "scrollbarDraggable": [false, true],
    "scrollbarSnapOnRelease": [false, true],
    "a11y": [false, true],
    "prevSlideMessage": "Previous slide",
    "nextSlideMessage": "Next slide",
    "firstSlideMessage": "This is the first slide",
    "lastSlideMessage": "This is the last slide",
    "paginationBulletMessage": "Go to slide {{index}}",
    "keyboardControl": [false, true],
    "mousewheelControl": [false, true],
    "mousewheelForceToAxis": [false, true],
    "mousewheelReleaseOnEdges": [false, true],
    "mousewheelSensitivity": 1,
    "mousewheelInvert": [false, true],
    "hashnav": [false, true],
    "preloadImages": [false, true],
    "updateOnImagesReady": [true, false],
    "lazyLoading": [false, true],
    "lazyLoadingInPrevNext": [false, true],
    "lazyLoadingInPrevNextAmount": 1,
    "lazyLoadingOnTransitionStart": [false, true],
    "loop": [false, true],
    "loopAdditionalSlides": 0,
    "loopedSlides": null,
    "control": null,
    "controlInverse": [false, true],
    "controlBy": ["slide", "container"],
    "observer": [false, true],
    "observeParents": [false, true],
    "slideClass": "swiper-slide",
    "slideActiveClass": "swiper-slide-active",
    "slideVisibleClass": "swiper-slide-visible",
    "slideDuplicateClass": "swiper-slide-duplicate",
    "slideNextClass": "swiper-slide-next",
    "slidePrevClass": "swiper-slide-prev",
    "wrapperClass": "swiper-wrapper",
    "bulletClass": "swiper-pagination-bullet",
    "bulletActiveClass": "swiper-pagination-bullet-active",
    "paginationHiddenClass": "swiper-pagination-hidden",
    "paginationCurrentClass": "swiper-pagination-current",
    "paginationTotalClass": "swiper-pagination-total",
    "paginationProgressbarClass": "swiper-pagination-progressbar",
    "buttonDisabledClass": "swiper-button-disabled"
  }
}